<svg xmlns="http://www.w3.org/2000/svg" width="94.066" height="20.544" viewBox="0 0 94.066 20.544">
  <g id="Groupe_186" data-name="Groupe 186" transform="translate(-917.079 -1887.089)">
    <path id="Tracé_38" data-name="Tracé 38" d="M924.06,1907.363l-6.386-9.957,6.576-10.043" fill="none" stroke="#b3b3b3" stroke-miterlimit="10" stroke-width="1"/>
    <path id="Tracé_39" data-name="Tracé 39" d="M1004.163,1907.363l6.386-9.957-6.576-10.043" fill="none" stroke="#b3b3b3" stroke-miterlimit="10" stroke-width="1"/>
    <g id="Groupe_185" data-name="Groupe 185">
      <g id="Groupe_184" data-name="Groupe 184">
        <g id="Groupe_183" data-name="Groupe 183">
          <circle id="Ellipse_143" data-name="Ellipse 143" cx="3.5" cy="3.5" r="3.5" transform="translate(945.95 1893.863)" fill="#1a1a1a"/>
        </g>
        <circle id="Ellipse_144" data-name="Ellipse 144" cx="3.5" cy="3.5" r="3.5" transform="translate(960.612 1893.863)" fill="#ccc"/>
        <circle id="Ellipse_145" data-name="Ellipse 145" cx="3.5" cy="3.5" r="3.5" transform="translate(975.273 1893.863)" fill="#ccc"/>
      </g>
    </g>
  </g>
</svg>
