<svg xmlns="http://www.w3.org/2000/svg" width="25.214" height="33.885" viewBox="0 0 25.214 33.885">
  <path id="Tracé_32" data-name="Tracé 32" d="M392.329,879.05v-4.435a7.226,7.226,0,0,0-7.175-7.254h-2.175a7.221,7.221,0,0,0-7.166,7.254v4.435a12.1,12.1,0,1,0,16.516,0Zm-13.385-4.435a4.072,4.072,0,0,1,4.035-4.091h2.175a4.079,4.079,0,0,1,4.044,4.091v2.3a11.892,11.892,0,0,0-10.254,0v-2.3Zm6.245,13.933a5.157,5.157,0,0,1,.439,2.083h0v5.647H382.51v-5.647h0a5.18,5.18,0,0,1,.43-2.083,2.59,2.59,0,0,1,1.131-4.9,2.587,2.587,0,0,1,1.118,4.9Z" transform="translate(-371.46 -866.861)" fill="none" stroke="black" stroke-miterlimit="10" stroke-width="1"/>
</svg>
